module gitlab.com/darkwyrm/goeznacl

go 1.17

require (
	github.com/zeebo/blake3 v0.2.1
	gitlab.com/darkwyrm/b85 v0.0.0-20210908110113-bdd55eedeb3c
	golang.org/x/crypto v0.0.0-20210817164053-32db794688a5
)

require golang.org/x/sys v0.0.0-20210615035016-665e8c7367d1 // indirect
